{
	"title": "amazing contact",
	"text": "Lorem ipsum dolor sit amet, consectetur adipiscing elit.",
	"brand" : "Nome/Logo",
    "phone" : "(11) 3873-3873",
    "address" : "123, Rua Direita - Apto 22<br> Campo Limpo, São Paulo - SP<br> 05000-000<br> Brasil",
    "business_hours" : "9h as 18h de Sexta a Sábado"
}
