{
	"title": "something amazing",
	"text": "Lorem ipsum dolor sit amet, consectetur adipiscing elit.",
	"header" : "amazing theme",
	"random" : "Lorem ipsum dolor sit amet, consectetur adipiscing elit.",
	"button" : "let's start",
	"year"   : "2013"
}
